<svg width="24" height="24" viewBox="0 0 24 24" fill="none" xmlns="http://www.w3.org/2000/svg">
<path d="M10.5729 22H19.1443C19.5232 22 19.8865 21.8495 20.1544 21.5816C20.4223 21.3137 20.5729 20.9503 20.5729 20.5714V3.42857C20.5729 3.04969 20.4223 2.68633 20.1544 2.41842C19.8865 2.15051 19.5232 2 19.1443 2H10.5729C10.194 2 9.83061 2.15051 9.5627 2.41842C9.2948 2.68633 9.14429 3.04969 9.14429 3.42857V5.57143H10.5729V3.42857H19.1443V20.5714H10.5729V18.4286H9.14429V20.5714C9.14429 20.9503 9.2948 21.3137 9.5627 21.5816C9.83061 21.8495 10.194 22 10.5729 22Z" fill="black"/>
<path d="M13.5514 12.7143L10.9943 15.2786L12.0014 16.2857L16.2871 12L12.0014 7.71429L10.9943 8.72143L13.5514 11.2857H3.43V12.7143H13.5514Z" fill="black"/>
</svg>
