<svg width="40" height="25" viewBox="0 0 40 25" fill="none" xmlns="http://www.w3.org/2000/svg">
<rect x="1" y="1" width="38" height="23" rx="4" stroke="white"/>
<path d="M9.50148 10.064C9.42948 9.848 9.39348 9.48 9.39348 8.96C9.39348 8.44 9.42948 8.072 9.50148 7.856C9.60548 7.528 9.77948 7.28 10.0235 7.112C10.2675 6.94 10.5655 6.854 10.9175 6.854C11.2415 6.854 11.5215 6.932 11.7575 7.088C11.9975 7.24 12.1775 7.454 12.2975 7.73C12.3095 7.766 12.2995 7.79 12.2675 7.802L11.7575 8.048C11.7215 8.068 11.6955 8.058 11.6795 8.018C11.5195 7.666 11.2655 7.49 10.9175 7.49C10.5535 7.49 10.3095 7.67 10.1855 8.03C10.1375 8.178 10.1135 8.488 10.1135 8.96C10.1135 9.432 10.1375 9.742 10.1855 9.89C10.3095 10.25 10.5535 10.43 10.9175 10.43C11.2655 10.43 11.5195 10.254 11.6795 9.902C11.6955 9.862 11.7215 9.852 11.7575 9.872L12.2675 10.118C12.2995 10.13 12.3095 10.154 12.2975 10.19C12.1775 10.466 11.9975 10.682 11.7575 10.838C11.5215 10.99 11.2415 11.066 10.9175 11.066C10.5655 11.066 10.2675 10.982 10.0235 10.814C9.77948 10.642 9.60548 10.392 9.50148 10.064ZM14.3926 11.066C14.0366 11.066 13.7326 10.982 13.4806 10.814C13.2326 10.646 13.0566 10.402 12.9526 10.082C12.8806 9.866 12.8446 9.492 12.8446 8.96C12.8446 8.428 12.8806 8.054 12.9526 7.838C13.0566 7.518 13.2326 7.274 13.4806 7.106C13.7326 6.938 14.0366 6.854 14.3926 6.854C14.7526 6.854 15.0566 6.938 15.3046 7.106C15.5566 7.274 15.7346 7.518 15.8386 7.838C15.9106 8.054 15.9466 8.428 15.9466 8.96C15.9466 9.492 15.9106 9.866 15.8386 10.082C15.7346 10.402 15.5566 10.646 15.3046 10.814C15.0566 10.982 14.7526 11.066 14.3926 11.066ZM14.3926 10.43C14.7766 10.43 15.0306 10.252 15.1546 9.896C15.2026 9.748 15.2266 9.436 15.2266 8.96C15.2266 8.488 15.2026 8.176 15.1546 8.024C15.0306 7.668 14.7766 7.49 14.3926 7.49C14.0126 7.49 13.7606 7.668 13.6366 8.024C13.5886 8.176 13.5646 8.488 13.5646 8.96C13.5646 9.436 13.5886 9.748 13.6366 9.896C13.7606 10.252 14.0126 10.43 14.3926 10.43ZM16.7264 10.94V6.98C16.7264 6.94 16.7464 6.92 16.7864 6.92H17.3384C17.3824 6.92 17.4164 6.94 17.4404 6.98L19.1024 9.794H19.1264V6.98C19.1264 6.94 19.1464 6.92 19.1864 6.92H19.7084C19.7484 6.92 19.7684 6.94 19.7684 6.98V10.94C19.7684 10.98 19.7484 11 19.7084 11H19.1624C19.1184 11 19.0844 10.98 19.0604 10.94L17.3924 8.132H17.3684V10.94C17.3684 10.98 17.3484 11 17.3084 11H16.7864C16.7464 11 16.7264 10.98 16.7264 10.94ZM22.1637 11H21.5757C21.5357 11 21.5157 10.98 21.5157 10.94V7.592C21.5157 7.568 21.5037 7.556 21.4797 7.556H20.4117C20.3717 7.556 20.3517 7.536 20.3517 7.496V6.98C20.3517 6.94 20.3717 6.92 20.4117 6.92H23.3277C23.3677 6.92 23.3877 6.94 23.3877 6.98V7.496C23.3877 7.536 23.3677 7.556 23.3277 7.556H22.2597C22.2357 7.556 22.2237 7.568 22.2237 7.592V10.94C22.2237 10.98 22.2037 11 22.1637 11ZM26.9506 11H26.2846C26.2406 11 26.2106 10.98 26.1946 10.94L25.4146 9.35H24.7126C24.6886 9.35 24.6766 9.362 24.6766 9.386V10.94C24.6766 10.98 24.6566 11 24.6166 11H24.0286C23.9886 11 23.9686 10.98 23.9686 10.94V6.98C23.9686 6.94 23.9886 6.92 24.0286 6.92H25.6066C25.9826 6.92 26.2926 7.034 26.5366 7.262C26.7846 7.49 26.9086 7.782 26.9086 8.138C26.9086 8.402 26.8386 8.634 26.6986 8.834C26.5586 9.03 26.3706 9.172 26.1346 9.26L26.9926 10.922C27.0046 10.942 27.0046 10.96 26.9926 10.976C26.9846 10.992 26.9706 11 26.9506 11ZM25.5826 8.714C25.7706 8.714 25.9206 8.662 26.0326 8.558C26.1486 8.45 26.2066 8.31 26.2066 8.138C26.2066 7.962 26.1486 7.822 26.0326 7.718C25.9206 7.61 25.7706 7.556 25.5826 7.556H24.7126C24.6886 7.556 24.6766 7.568 24.6766 7.592V8.678C24.6766 8.702 24.6886 8.714 24.7126 8.714H25.5826ZM27.3414 10.94L28.7394 6.98C28.7514 6.94 28.7774 6.92 28.8174 6.92H29.3694C29.4094 6.92 29.4354 6.94 29.4474 6.98L30.8274 10.94C30.8394 10.98 30.8254 11 30.7854 11H30.1974C30.1574 11 30.1314 10.98 30.1194 10.94L29.8494 10.148H28.3134L28.0434 10.94C28.0314 10.98 28.0054 11 27.9654 11H27.3834C27.3434 11 27.3294 10.98 27.3414 10.94ZM28.5294 9.518H29.6334L29.0934 7.934H29.0754L28.5294 9.518ZM6.90563 18H6.23963C6.19563 18 6.16563 17.98 6.14963 17.94L5.36963 16.35H4.66763C4.64363 16.35 4.63163 16.362 4.63163 16.386V17.94C4.63163 17.98 4.61163 18 4.57163 18H3.98363C3.94363 18 3.92363 17.98 3.92363 17.94V13.98C3.92363 13.94 3.94363 13.92 3.98363 13.92H5.56163C5.93763 13.92 6.24763 14.034 6.49163 14.262C6.73963 14.49 6.86363 14.782 6.86363 15.138C6.86363 15.402 6.79363 15.634 6.65363 15.834C6.51363 16.03 6.32563 16.172 6.08963 16.26L6.94763 17.922C6.95963 17.942 6.95963 17.96 6.94763 17.976C6.93963 17.992 6.92563 18 6.90563 18ZM5.53763 15.714C5.72563 15.714 5.87563 15.662 5.98763 15.558C6.10363 15.45 6.16163 15.31 6.16163 15.138C6.16163 14.962 6.10363 14.822 5.98763 14.718C5.87563 14.61 5.72563 14.556 5.53763 14.556H4.66763C4.64363 14.556 4.63163 14.568 4.63163 14.592V15.678C4.63163 15.702 4.64363 15.714 4.66763 15.714H5.53763ZM7.63848 17.94V13.98C7.63848 13.94 7.65848 13.92 7.69848 13.92H10.2545C10.2945 13.92 10.3145 13.94 10.3145 13.98V14.496C10.3145 14.536 10.2945 14.556 10.2545 14.556H8.38248C8.35848 14.556 8.34648 14.568 8.34648 14.592V15.588C8.34648 15.612 8.35848 15.624 8.38248 15.624H9.96048C10.0005 15.624 10.0205 15.644 10.0205 15.684V16.2C10.0205 16.24 10.0005 16.26 9.96048 16.26H8.38248C8.35848 16.26 8.34648 16.272 8.34648 16.296V17.328C8.34648 17.352 8.35848 17.364 8.38248 17.364H10.2545C10.2945 17.364 10.3145 17.384 10.3145 17.424V17.94C10.3145 17.98 10.2945 18 10.2545 18H7.69848C7.65848 18 7.63848 17.98 7.63848 17.94ZM11.0604 17.94V13.98C11.0604 13.94 11.0804 13.92 11.1204 13.92H13.6764C13.7164 13.92 13.7364 13.94 13.7364 13.98V14.496C13.7364 14.536 13.7164 14.556 13.6764 14.556H11.8044C11.7804 14.556 11.7684 14.568 11.7684 14.592V15.588C11.7684 15.612 11.7804 15.624 11.8044 15.624H13.3824C13.4224 15.624 13.4424 15.644 13.4424 15.684V16.2C13.4424 16.24 13.4224 16.26 13.3824 16.26H11.8044C11.7804 16.26 11.7684 16.272 11.7684 16.296V17.328C11.7684 17.352 11.7804 17.364 11.8044 17.364H13.6764C13.7164 17.364 13.7364 17.384 13.7364 17.424V17.94C13.7364 17.98 13.7164 18 13.6764 18H11.1204C11.0804 18 11.0604 17.98 11.0604 17.94ZM14.4822 17.94V13.98C14.4822 13.94 14.5022 13.92 14.5422 13.92H15.0762C15.1282 13.92 15.1622 13.94 15.1782 13.98L16.3002 16.494H16.3242L17.4282 13.98C17.4442 13.94 17.4782 13.92 17.5302 13.92H18.0582C18.0982 13.92 18.1182 13.94 18.1182 13.98V17.94C18.1182 17.98 18.0982 18 18.0582 18H17.5362C17.4962 18 17.4762 17.98 17.4762 17.94V15.444H17.4522L16.5882 17.364C16.5642 17.416 16.5262 17.442 16.4742 17.442H16.1262C16.0742 17.442 16.0362 17.416 16.0122 17.364L15.1482 15.444H15.1242V17.94C15.1242 17.98 15.1042 18 15.0642 18H14.5422C14.5022 18 14.4822 17.98 14.4822 17.94ZM19.0174 17.94V13.98C19.0174 13.94 19.0374 13.92 19.0774 13.92H20.5954C21.0154 13.92 21.3314 14.018 21.5434 14.214C21.7594 14.406 21.8674 14.67 21.8674 15.006C21.8674 15.414 21.7094 15.702 21.3934 15.87V15.882C21.5374 15.938 21.6634 16.048 21.7714 16.212C21.8834 16.372 21.9394 16.568 21.9394 16.8C21.9394 17.2 21.8174 17.5 21.5734 17.7C21.3334 17.9 20.9874 18 20.5354 18H19.0774C19.0374 18 19.0174 17.98 19.0174 17.94ZM19.7614 15.618H20.5774C20.7574 15.618 20.8994 15.57 21.0034 15.474C21.1074 15.374 21.1594 15.244 21.1594 15.084C21.1594 14.92 21.1074 14.79 21.0034 14.694C20.8994 14.594 20.7574 14.544 20.5774 14.544H19.7614C19.7374 14.544 19.7254 14.556 19.7254 14.58V15.582C19.7254 15.606 19.7374 15.618 19.7614 15.618ZM19.7254 17.34C19.7254 17.364 19.7374 17.376 19.7614 17.376H20.6134C20.8094 17.376 20.9614 17.324 21.0694 17.22C21.1774 17.116 21.2314 16.978 21.2314 16.806C21.2314 16.634 21.1774 16.498 21.0694 16.398C20.9614 16.294 20.8094 16.242 20.6134 16.242H19.7614C19.7374 16.242 19.7254 16.254 19.7254 16.278V17.34ZM24.0899 18.066C23.7339 18.066 23.4299 17.982 23.1779 17.814C22.9299 17.646 22.7539 17.402 22.6499 17.082C22.5779 16.866 22.5419 16.492 22.5419 15.96C22.5419 15.428 22.5779 15.054 22.6499 14.838C22.7539 14.518 22.9299 14.274 23.1779 14.106C23.4299 13.938 23.7339 13.854 24.0899 13.854C24.4499 13.854 24.7539 13.938 25.0019 14.106C25.2539 14.274 25.4319 14.518 25.5359 14.838C25.6079 15.054 25.6439 15.428 25.6439 15.96C25.6439 16.492 25.6079 16.866 25.5359 17.082C25.4319 17.402 25.2539 17.646 25.0019 17.814C24.7539 17.982 24.4499 18.066 24.0899 18.066ZM24.0899 17.43C24.4739 17.43 24.7279 17.252 24.8519 16.896C24.8999 16.748 24.9239 16.436 24.9239 15.96C24.9239 15.488 24.8999 15.176 24.8519 15.024C24.7279 14.668 24.4739 14.49 24.0899 14.49C23.7099 14.49 23.4579 14.668 23.3339 15.024C23.2859 15.176 23.2619 15.488 23.2619 15.96C23.2619 16.436 23.2859 16.748 23.3339 16.896C23.4579 17.252 23.7099 17.43 24.0899 17.43ZM26.4236 17.94V13.98C26.4236 13.94 26.4436 13.92 26.4836 13.92H27.0716C27.1116 13.92 27.1316 13.94 27.1316 13.98V17.328C27.1316 17.352 27.1436 17.364 27.1676 17.364H29.0396C29.0796 17.364 29.0996 17.384 29.0996 17.424V17.94C29.0996 17.98 29.0796 18 29.0396 18H26.4836C26.4436 18 26.4236 17.98 26.4236 17.94ZM30.9772 18.066C30.6852 18.066 30.4032 18.016 30.1312 17.916C29.8592 17.812 29.6412 17.682 29.4772 17.526C29.4452 17.494 29.4412 17.464 29.4652 17.436L29.8372 17.004C29.8652 16.972 29.8932 16.97 29.9212 16.998C30.2852 17.286 30.6552 17.43 31.0312 17.43C31.2712 17.43 31.4592 17.376 31.5952 17.268C31.7312 17.16 31.7992 17.018 31.7992 16.842C31.7992 16.686 31.7432 16.562 31.6312 16.47C31.5192 16.378 31.3272 16.314 31.0552 16.278L30.8392 16.248C30.0192 16.136 29.6092 15.748 29.6092 15.084C29.6092 14.712 29.7332 14.414 29.9812 14.19C30.2332 13.966 30.5692 13.854 30.9892 13.854C31.5092 13.854 31.9492 13.99 32.3092 14.262C32.3372 14.286 32.3412 14.314 32.3212 14.346L32.0332 14.79C32.0092 14.822 31.9812 14.828 31.9492 14.808C31.6252 14.596 31.2992 14.49 30.9712 14.49C30.7672 14.49 30.6092 14.54 30.4972 14.64C30.3852 14.74 30.3292 14.872 30.3292 15.036C30.3292 15.332 30.5792 15.516 31.0792 15.588L31.2952 15.618C32.1072 15.73 32.5132 16.124 32.5132 16.8C32.5132 17.176 32.3792 17.482 32.1112 17.718C31.8472 17.95 31.4692 18.066 30.9772 18.066ZM34.6426 18.066C34.2866 18.066 33.9826 17.982 33.7306 17.814C33.4826 17.646 33.3066 17.402 33.2026 17.082C33.1306 16.866 33.0946 16.492 33.0946 15.96C33.0946 15.428 33.1306 15.054 33.2026 14.838C33.3066 14.518 33.4826 14.274 33.7306 14.106C33.9826 13.938 34.2866 13.854 34.6426 13.854C35.0026 13.854 35.3066 13.938 35.5546 14.106C35.8066 14.274 35.9846 14.518 36.0886 14.838C36.1606 15.054 36.1966 15.428 36.1966 15.96C36.1966 16.492 36.1606 16.866 36.0886 17.082C35.9846 17.402 35.8066 17.646 35.5546 17.814C35.3066 17.982 35.0026 18.066 34.6426 18.066ZM34.6426 17.43C35.0266 17.43 35.2806 17.252 35.4046 16.896C35.4526 16.748 35.4766 16.436 35.4766 15.96C35.4766 15.488 35.4526 15.176 35.4046 15.024C35.2806 14.668 35.0266 14.49 34.6426 14.49C34.2626 14.49 34.0106 14.668 33.8866 15.024C33.8386 15.176 33.8146 15.488 33.8146 15.96C33.8146 16.436 33.8386 16.748 33.8866 16.896C34.0106 17.252 34.2626 17.43 34.6426 17.43Z" fill="white"/>
</svg>
