<svg width="10" height="6" viewBox="0 0 10 6" fill="none" xmlns="http://www.w3.org/2000/svg">
<path d="M5 3.93992L8.71104 0.228877C8.7802 0.157272 8.86293 0.100158 8.95439 0.0608662C9.04586 0.0215749 9.14424 0.000893328 9.24378 2.83057e-05C9.34333 -0.000836717 9.44205 0.0181327 9.53418 0.0558285C9.62632 0.0935243 9.71003 0.149192 9.78042 0.219584C9.85081 0.289976 9.90648 0.373682 9.94417 0.465818C9.98187 0.557954 10.0008 0.656674 9.99997 0.75622C9.99911 0.855765 9.97843 0.954142 9.93913 1.04561C9.89984 1.13708 9.84273 1.2198 9.77112 1.28896L5.53004 5.53004C5.38945 5.67059 5.1988 5.74955 5 5.74955C4.80121 5.74955 4.61055 5.67059 4.46996 5.53004L0.228876 1.28896C0.157271 1.2198 0.100158 1.13708 0.0608662 1.04561C0.0215749 0.954142 0.000893329 0.855765 2.83067e-05 0.75622C-0.000836716 0.656674 0.0181319 0.557954 0.0558278 0.465818C0.0935236 0.373682 0.149192 0.289976 0.219583 0.219584C0.289975 0.149192 0.373681 0.0935243 0.465817 0.0558285C0.557954 0.0181327 0.656674 -0.000836717 0.75622 2.83057e-05C0.855765 0.000893328 0.954141 0.0215749 1.04561 0.0608662C1.13708 0.100158 1.2198 0.157272 1.28896 0.228877L5 3.93992Z" fill="white"/>
</svg>
