<svg width="24" height="24" viewBox="0 0 24 24" fill="none" xmlns="http://www.w3.org/2000/svg">
<path d="M20.1159 4.60276C20.4153 4.31657 20.4261 3.84182 20.1399 3.54237C19.8537 3.24292 19.379 3.23216 19.0795 3.51834L2.44223 19.4183C2.14278 19.7045 2.13202 20.1792 2.4182 20.4787C2.70439 20.7781 3.17914 20.7889 3.47859 20.5027L7.86557 16.3101C7.86943 16.3118 7.8733 16.3134 7.87716 16.315L9.25653 14.9968C9.25342 14.9944 9.25031 14.9921 9.2472 14.9897L11.1973 13.1261C11.2011 13.1278 11.2049 13.1295 11.2086 13.1312L13.823 10.6327C13.8215 10.6288 13.8199 10.625 13.8184 10.6211L15.6396 8.88062C15.6435 8.88226 15.6473 8.8839 15.6512 8.88554L16.6741 7.90791C16.6704 7.90615 16.6667 7.90438 16.663 7.90262L20.1159 4.60276Z" fill="black"/>
<path d="M12 6.7802C12.6078 6.7802 13.1999 6.8401 13.7722 6.9465L12.5616 8.10348C12.3764 8.09045 12.1892 8.08364 12 8.08364C10.5486 8.08364 9.20868 8.48575 8.04927 9.02016H8.06947C7.66736 9.69991 7.43796 10.4917 7.43796 11.3422C7.43675 11.8351 7.51539 12.3205 7.6672 12.7809L6.6507 13.7524C6.31805 13.0166 6.13451 12.2001 6.13451 11.3422C6.13681 10.8895 6.19149 10.4386 6.29744 9.99839C5.42443 10.5806 4.6124 11.2487 3.8737 11.994C4.62579 12.7616 5.45705 13.4463 6.3531 14.0368L5.38511 14.9619C3.52541 13.7194 2.38712 12.4215 2.38712 12.4215L2 11.994L2.38712 11.5664C2.38712 11.5664 6.56726 6.7802 12 6.7802Z" fill="black"/>
<path fill-rule="evenodd" clip-rule="evenodd" d="M9.14083 16.7672L10.3554 15.6065C10.7177 15.7463 11.0991 15.8403 11.491 15.8841L11.5213 15.8859C11.6793 15.8951 11.8371 15.9043 12 15.9043C12.1089 15.9043 12.2166 15.8981 12.3241 15.8919C12.3722 15.8891 12.4204 15.8863 12.4686 15.8841C12.4748 15.8828 12.4816 15.8834 12.4885 15.8841C12.4954 15.8847 12.5025 15.8854 12.509 15.8841C13.6255 15.7595 14.6566 15.227 15.4046 14.3888C16.1526 13.5505 16.5648 12.4657 16.562 11.3422C16.562 10.8342 16.48 10.3508 16.3278 9.89874L17.7912 8.50023C20.1335 9.8726 21.6129 11.5664 21.6129 11.5664L22 11.994L21.6129 12.4221C21.6129 12.4221 17.8016 16.7672 12.7332 17.1667C12.4914 17.1973 12.2496 17.2077 12 17.2077C11.7504 17.2077 11.5086 17.1973 11.2668 17.1673C10.5289 17.1091 9.81759 16.9672 9.14083 16.7672ZM17.8655 11.3422C17.8655 10.8765 17.8043 10.4317 17.7027 9.99851C18.5757 10.5805 19.3876 11.249 20.1263 11.994C19.1879 12.9517 18.1263 13.7804 16.9694 14.4581C17.5572 13.5254 17.868 12.4448 17.8655 11.3422Z" fill="black"/>
</svg>
