<svg width="36" height="22" viewBox="0 0 36 22" fill="none" xmlns="http://www.w3.org/2000/svg">
<path fill-rule="evenodd" clip-rule="evenodd" d="M0.249023 4.125C0.249023 1.84683 2.09585 0 4.37402 0H31.874C34.1522 0 35.999 1.84683 35.999 4.125V17.875C35.999 20.1532 34.1522 22 31.874 22H4.37402C2.09585 22 0.249023 20.1532 0.249023 17.875V4.125ZM4.37402 0.916667C2.60211 0.916667 1.16569 2.35309 1.16569 4.125V17.875C1.16569 19.6469 2.60211 21.0833 4.37402 21.0833H31.874C33.6459 21.0833 35.0824 19.6469 35.0824 17.875V4.125C35.0824 2.35309 33.6459 0.916667 31.874 0.916667H4.37402Z" fill="white"/>
<path d="M6.52995 12.9382L6.50774 12.9592C6.14967 13.3158 5.73523 13.5049 5.30819 13.5049C4.4168 13.5049 3.76974 12.8511 3.76974 11.9492C3.76974 11.0488 4.4168 10.3942 5.30819 10.3942C5.73523 10.3942 6.14967 10.584 6.50774 10.9415L6.52995 10.9632L7.10322 10.2856L7.08789 10.2672C6.61114 9.71644 6.03911 9.44834 5.33586 9.44834C4.63018 9.44834 3.9851 9.6805 3.52019 10.0992C3.01505 10.5526 2.74834 11.192 2.74834 11.9492C2.74834 12.7059 3.01505 13.347 3.52019 13.8005C3.9851 14.2211 4.63018 14.452 5.33586 14.452C6.03911 14.452 6.61114 14.184 7.08789 13.6331L7.10322 13.616L6.52995 12.9382Z" fill="white"/>
<path d="M7.68298 14.3598H8.69572V9.52686H7.68298V14.3598Z" fill="white"/>
<path d="M12.6618 13.3089C12.3916 13.4697 12.1401 13.5506 11.9143 13.5506C11.5871 13.5506 11.4393 13.3818 11.4393 13.0057V10.4414H12.4707V9.53129H11.4393V8.0275L10.4466 8.54681V9.53129H9.59031V10.4414H10.4466V13.1693C10.4466 13.9125 10.897 14.4203 11.5693 14.4335C12.0257 14.4422 12.3009 14.3093 12.4681 14.2121L12.4778 14.205L12.7217 13.2731L12.6618 13.3089Z" fill="white"/>
<path d="M13.5003 14.3598H14.5137V9.52686H13.5003V14.3598Z" fill="white"/>
<path d="M30.6662 7.68798V12.2981L30.9817 11.818C30.9815 11.8202 32.3991 9.81343 32.5807 9.55754H33.2125C33.078 9.73418 31.9634 11.2337 31.9634 11.2337C31.9634 11.2337 33.4153 14.1913 33.4992 14.3598H32.8788C32.8447 14.2908 31.5974 11.7095 31.5974 11.7095L30.6662 12.985V14.3598H30.0882V8.01066C30.1388 7.98228 30.5302 7.76294 30.6662 7.68798ZM25.9181 10.1301C26.2162 9.69435 26.6834 9.4541 27.2299 9.4541C28.3197 9.4541 28.8973 10.1336 28.8973 11.4193V14.3598H28.3178V11.5411C28.3178 10.4472 27.9293 9.93939 27.0876 9.93939C26.2819 9.93939 25.8009 10.5384 25.8009 11.5411V14.3598H25.2231V9.55754H25.8009V10.3022L25.9181 10.1301ZM22.3655 9.4541C23.4869 9.4541 24.0321 9.95542 24.0321 10.987V14.3598H23.454V13.6591L23.3416 13.7804C22.9162 14.2392 22.4279 14.4636 21.8465 14.4636C21.3909 14.4636 20.3309 14.3162 20.3309 12.9491C20.3309 11.8316 21.2745 11.435 22.1584 11.435C22.6023 11.435 23.0407 11.5349 23.3589 11.7092L23.454 11.7607V11.0713C23.454 10.307 23.0722 9.91985 22.3176 9.91985C21.8522 9.91985 21.4322 10.0347 21.0016 10.2719C20.9636 10.1866 20.83 9.89791 20.7929 9.81556C21.2429 9.58367 21.7987 9.4541 22.3655 9.4541ZM20.8977 12.902C20.8977 13.6199 21.2782 14.0155 21.9694 14.0155C22.5578 14.0155 23.0804 13.7438 23.4432 13.2496L23.454 13.2326V12.1798L23.4219 12.1616C23.053 11.956 22.6751 11.8731 22.1197 11.8731C21.3551 11.8731 20.8977 12.2576 20.8977 12.902ZM16.4344 7.68798V10.2569L16.5463 10.1371C16.972 9.67747 17.4432 9.4541 17.9849 9.4541C19.0691 9.4541 19.6914 10.3375 19.6914 11.8781C19.6914 13.4486 18.9846 14.4636 17.8904 14.4636C17.3572 14.4636 16.9303 14.2613 16.5469 13.8279L16.4344 13.6999V14.3598H15.8575V8.01066C15.9067 7.98228 16.2988 7.76294 16.4344 7.68798ZM16.4481 10.6753L16.4344 10.693V13.1928L16.4447 13.2081C16.7635 13.6905 17.283 13.9789 17.8358 13.9789C18.6896 13.9789 19.1224 13.2754 19.1224 11.8883C19.1224 10.6492 18.6429 9.93939 17.8069 9.93939C17.3002 9.93939 16.843 10.1869 16.4481 10.6753Z" fill="white"/>
<path fill-rule="evenodd" clip-rule="evenodd" d="M15.1202 8.66931C14.1931 7.38564 12.6536 6.61977 11.0872 6.61977C9.5214 6.61977 7.98151 7.38564 7.056 8.66931L7.00852 8.73536H8.17581L8.18875 8.72166C8.98324 7.92005 10.0204 7.49612 11.0872 7.49612C12.1541 7.49612 13.191 7.92005 13.987 8.72166L13.9999 8.73536H15.1669L15.1202 8.66931Z" fill="white"/>
</svg>
