<svg width="24" height="24" viewBox="0 0 24 24" fill="none" xmlns="http://www.w3.org/2000/svg">
<path d="M3.42857 11H20.5714C20.9503 11 21.3137 11.1505 21.5816 11.4184C21.8495 11.6863 22 12.0497 22 12.4286C22 12.8075 21.8495 13.1708 21.5816 13.4387C21.3137 13.7066 20.9503 13.8571 20.5714 13.8571H3.42857C3.04969 13.8571 2.68633 13.7066 2.41842 13.4387C2.15051 13.1708 2 12.8075 2 12.4286C2 12.0497 2.15051 11.6863 2.41842 11.4184C2.68633 11.1505 3.04969 11 3.42857 11Z" fill="#000B13"/>
</svg>
