<svg width="24" height="24" viewBox="0 0 24 24" fill="none" xmlns="http://www.w3.org/2000/svg">
<rect width="24" height="24" rx="12" fill="white"/>
<path d="M11.0601 12L14.7712 15.711C14.8428 15.7802 14.8999 15.8629 14.9392 15.9544C14.9785 16.0459 14.9991 16.1442 15 16.2438C15.0009 16.3433 14.9819 16.442 14.9442 16.5342C14.9065 16.6263 14.8508 16.71 14.7804 16.7804C14.7101 16.8508 14.6264 16.9065 14.5342 16.9442C14.4421 16.9819 14.3434 17.0008 14.2438 17C14.1443 16.9991 14.0459 16.9784 13.9544 16.9391C13.863 16.8998 13.7802 16.8427 13.7111 16.7711L9.46999 12.53C9.32944 12.3895 9.25049 12.1988 9.25049 12C9.25049 11.8012 9.32944 11.6105 9.46999 11.47L13.7111 7.22888C13.7802 7.15727 13.863 7.10016 13.9544 7.06087C14.0459 7.02157 14.1443 7.00089 14.2438 7.00003C14.3434 6.99916 14.4421 7.01813 14.5342 7.05583C14.6264 7.09352 14.7101 7.14919 14.7805 7.21958C14.8508 7.28998 14.9065 7.37368 14.9442 7.46582C14.9819 7.55795 15.0009 7.65667 15 7.75622C14.9991 7.85577 14.9785 7.95414 14.9392 8.04561C14.8999 8.13708 14.8428 8.2198 14.7712 8.28896L11.0601 12Z" fill="#000B13"/>
</svg>
