<svg width="92" height="92" viewBox="0 0 92 92" fill="none" xmlns="http://www.w3.org/2000/svg">
<path d="M30.6059 8.83984C25.8044 9.50915 21.0029 10.4695 16.2014 11.779C14.3099 12.3028 12.2728 14.3398 11.749 16.2313C10.4686 21.0328 9.47924 25.8343 8.80994 30.6358C15.0956 22.3423 22.3415 15.0964 30.6059 8.83984Z" fill="#BAE4F9"/>
<path d="M61.3939 83.1612C66.1954 82.4919 70.997 81.5316 75.7985 80.2221C77.69 79.6983 79.727 77.6613 80.2508 75.7698C81.5312 70.9683 82.5206 66.1668 83.1899 61.3652C76.9043 69.6588 69.6584 76.9047 61.3939 83.1612Z" fill="#BAE4F9"/>
<path d="M8.83911 61.3945C9.50841 66.1961 10.4687 70.9976 11.7782 75.7991C12.302 77.6906 14.339 79.7276 16.2305 80.2514C21.0321 81.5318 25.8336 82.5212 30.6351 83.1905C22.3416 76.9049 15.0956 69.659 8.83911 61.3945Z" fill="#BAE4F9"/>
<path d="M83.1607 30.6065C82.4914 25.805 81.5311 21.0035 80.2216 16.202C79.6978 14.3105 77.6608 12.2735 75.7693 11.7497C70.9678 10.4693 66.1663 9.47985 61.3647 8.81055C69.6583 15.0962 76.9042 22.3421 83.1607 30.6065Z" fill="#BAE4F9"/>
<path d="M61.394 8.83916C57.5237 5.92915 53.4497 3.22284 49.1429 0.720228C47.4259 -0.240076 44.5741 -0.240076 42.8572 0.720228C38.5504 3.19374 34.4764 5.90005 30.6061 8.83916C40.8784 7.41325 51.1217 7.41325 61.394 8.83916Z" fill="#72CDF4"/>
<path d="M8.83916 30.6055C5.92915 34.4758 3.22284 38.5498 0.720228 42.8566C-0.240076 44.5735 -0.240076 47.4253 0.720228 49.1422C3.19374 53.4491 5.90005 57.5231 8.83916 61.3934C7.41325 51.121 7.41325 40.8778 8.83916 30.6055Z" fill="#72CDF4"/>
<path d="M30.6061 83.1602C34.4764 86.0702 38.5504 88.7765 42.8572 91.2791C44.5741 92.2394 47.4259 92.2394 49.1429 91.2791C53.4497 88.8056 57.5237 86.0993 61.394 83.1602C51.1217 84.5861 40.8784 84.5861 30.6061 83.1602Z" fill="#72CDF4"/>
<path d="M91.2797 42.8566C88.8062 38.5498 86.0999 34.4758 83.1608 30.6055C84.5867 40.8487 84.5867 51.121 83.1608 61.3643C86.0708 57.494 88.7771 53.42 91.2797 49.1131C92.24 47.4253 92.24 44.5735 91.2797 42.8566Z" fill="#72CDF4"/>
<path d="M83.1608 30.6056C76.9043 22.3412 69.6584 15.0662 61.3939 8.80966C51.1507 7.38376 40.8784 7.38376 30.6351 8.80966C22.3707 15.0662 15.0957 22.3121 8.86826 30.5765C7.44235 40.8489 7.44235 51.0921 8.86826 61.3354C15.1248 69.5998 22.3707 76.8748 30.6351 83.1022C40.8784 84.5282 51.1507 84.5282 61.3939 83.1022C69.6584 76.8457 76.9334 69.5998 83.1608 61.3354C84.5867 51.1212 84.5867 40.878 83.1608 30.6056Z" fill="#009DDC"/>
<path d="M27.0849 44.2253C27.0558 44.1962 26.9976 44.1671 26.9394 44.1671H22.1088V26.3287C22.1088 26.2705 22.0797 26.2414 22.0506 26.1832C22.0215 26.1541 21.9633 26.125 21.9051 26.125H18.6168C18.5586 26.125 18.5004 26.1541 18.4713 26.1832C18.4422 26.2123 18.4131 26.2705 18.4131 26.3287V47.1644C18.4131 47.2226 18.4422 47.2808 18.4713 47.3099C18.5004 47.339 18.5586 47.3681 18.6168 47.3681H26.9394C26.9976 47.3681 27.0558 47.339 27.0849 47.3099C27.114 47.2808 27.1431 47.2226 27.1431 47.1644V44.3708C27.1431 44.3126 27.114 44.2835 27.0849 44.2253Z" fill="#00447C"/>
<path d="M33.6907 25.8926C29.3257 25.8926 26.9395 30.4613 26.9395 36.7178C26.9395 43.0325 29.0347 47.5722 33.3415 47.6013H33.3997C35.2621 47.6013 36.9499 46.7865 38.1139 44.9823C39.2779 43.178 39.9763 40.4135 39.9763 36.4559C39.9472 30.8396 38.2303 25.9217 33.6907 25.8926ZM35.5531 42.0722C35.1166 43.4981 34.4764 44.342 33.5452 44.3129H33.487C32.5558 44.3129 31.8574 43.5272 31.3918 42.1595C30.9262 40.7918 30.7516 38.9003 30.7516 36.9215C30.7516 36.8342 30.7516 36.776 30.7516 36.6887C30.7516 36.6014 30.7516 36.5432 30.7516 36.4559C30.7516 34.5644 30.9553 32.702 31.3918 31.3634C31.8574 29.9957 32.5267 29.1518 33.487 29.1809C34.4473 29.1809 35.1166 30.0248 35.5531 31.4507C35.9896 32.8475 36.1351 34.7681 36.1351 36.6305C36.1351 38.6966 35.9605 40.6463 35.5531 42.0722Z" fill="#00447C"/>
<path d="M53.566 35.6702C53.5369 35.6411 53.4787 35.612 53.4205 35.612H48.1534C48.0952 35.612 48.037 35.6411 48.0079 35.6702C47.9788 35.6993 47.9497 35.7575 47.9497 35.8157V38.522C47.9497 38.5802 47.9788 38.6384 48.0079 38.6675C48.037 38.6966 48.0952 38.7257 48.1534 38.7257H50.1904V44.2256C50.0158 44.2838 49.7248 44.3129 49.3174 44.3129C47.2804 44.3129 45.1852 42.5669 45.1561 36.9506C45.1852 31.1306 47.5423 29.3264 50.1031 29.2973C51.1216 29.2973 51.8782 29.4719 52.3729 29.7629C52.4311 29.792 52.4893 29.792 52.5475 29.7629C52.6057 29.7338 52.6348 29.6756 52.6639 29.6174L53.3041 26.7656C53.3332 26.6783 53.275 26.591 53.2168 26.5328C52.5184 26.1836 51.3835 25.8926 49.9285 25.8926C45.7381 25.8926 41.3731 28.9772 41.344 36.8633C41.344 36.9215 41.344 36.9797 41.344 37.0379C41.344 40.6754 42.3334 43.6436 43.9921 45.3897C45.418 46.8738 47.2513 47.4849 49.4047 47.4849C50.8888 47.4849 52.6057 47.1066 53.5369 46.7283C53.6242 46.6992 53.6533 46.641 53.6533 46.5537V35.7866C53.6242 35.7575 53.5951 35.7284 53.566 35.6702Z" fill="#00447C"/>
<path d="M59.4442 26.1832C59.4151 26.1541 59.3569 26.125 59.2987 26.125H55.9813C55.9231 26.125 55.8649 26.1541 55.8358 26.1832C55.8067 26.2123 55.7776 26.2705 55.7776 26.3287V47.1644C55.7776 47.2226 55.8067 47.2808 55.8358 47.3099C55.8649 47.339 55.9231 47.3681 55.9813 47.3681H59.2987C59.3569 47.3681 59.4151 47.339 59.4442 47.3099C59.4733 47.2808 59.5024 47.2226 59.5024 47.1644V26.3287C59.5024 26.2705 59.5024 26.2414 59.4442 26.1832Z" fill="#00447C"/>
<path d="M68.0288 35.0886C65.8754 33.7209 65.1479 33.0516 65.1479 31.5384C65.1479 30.3744 65.9336 29.2104 67.7378 29.2104C68.8145 29.2104 69.6293 29.5305 70.1822 29.8797C70.2404 29.9088 70.2986 29.9088 70.3568 29.9088C70.415 29.8797 70.4732 29.8215 70.4732 29.7633L71.0553 26.9115C71.0844 26.8242 71.0262 26.7369 70.968 26.7078C70.3568 26.3295 69.1346 25.9512 67.7669 25.9512C65.7881 25.9512 64.1876 26.6205 63.1109 27.6972C62.0342 28.7739 61.4813 30.2871 61.4813 31.9458C61.4813 34.3029 63.14 36.4272 65.4971 37.9113C67.1849 39.0753 68.1161 39.9774 68.1161 41.5488C68.087 43.1784 67.1267 44.226 65.177 44.2551C64.1294 44.2551 62.7908 43.8768 62.0633 43.4403C62.0051 43.4112 61.9469 43.4112 61.8887 43.4403C61.8305 43.4694 61.8014 43.5276 61.7723 43.5858L61.2194 46.4377C61.1903 46.525 61.2485 46.5832 61.3067 46.6413C62.0051 47.107 63.6056 47.5435 65.177 47.5435C67.0976 47.5435 68.7272 46.9324 69.9203 45.8265C71.0843 44.7207 71.7828 43.1493 71.7828 41.2287C71.8119 38.9298 70.706 36.8346 68.0288 35.0886Z" fill="#00447C"/>
<path d="M25.4262 65.4965C25.4262 65.4674 25.3971 65.4383 25.3389 65.4092C25.3098 65.3801 25.2516 65.4092 25.2225 65.4092C24.8442 65.6129 24.204 65.8166 23.4183 65.8166C21.3813 65.8166 19.3152 64.187 19.3152 58.3378C19.3152 52.6633 21.6723 50.9173 23.331 50.9173C24.2913 50.9173 24.6405 51.0919 25.077 51.2665C25.1061 51.2956 25.1352 51.2956 25.1934 51.2665C25.2225 51.2665 25.2516 51.2374 25.2516 51.1792L25.6008 50.2189C25.6299 50.1607 25.6008 50.1025 25.5426 50.0734C25.1643 49.8406 24.4368 49.666 23.5056 49.666C22.3125 49.666 20.9157 50.1607 19.839 51.5284C18.7332 52.8961 17.9475 55.1077 17.9475 58.5124C17.9475 61.6844 18.5877 63.7796 19.5771 65.1473C20.5665 66.4859 21.9051 67.0388 23.2437 67.0388C24.2622 67.0388 25.077 66.8642 25.659 66.5441C25.7172 66.515 25.7463 66.4568 25.7172 66.3986L25.4262 65.4965Z" fill="white"/>
<path d="M34.2144 65.7582C34.1853 65.7291 34.1562 65.7291 34.1271 65.7291H29.18V58.5996H33.4869C33.516 58.5996 33.5451 58.5996 33.5742 58.5705C33.6033 58.5414 33.6033 58.5123 33.6033 58.4832V57.5229C33.6033 57.4938 33.6033 57.4647 33.5742 57.4356C33.5451 57.4065 33.516 57.4065 33.4869 57.4065H29.18V51.1208H33.7779C33.807 51.1208 33.8361 51.1208 33.8652 51.0917C33.8943 51.0626 33.8943 51.0335 33.8943 51.0044V50.0441C33.8943 50.015 33.8943 49.9859 33.8652 49.9568C33.8361 49.9277 33.807 49.9277 33.7779 49.9277H27.9578C27.9287 49.9277 27.8996 49.9277 27.8705 49.9568C27.8414 49.9859 27.8414 50.015 27.8414 50.0441V66.8349C27.8414 66.864 27.8705 66.8931 27.8705 66.9222C27.8996 66.9513 27.9287 66.9513 27.9578 66.9513H34.1271C34.1562 66.9513 34.1853 66.9513 34.2144 66.9222C34.2435 66.8931 34.2435 66.864 34.2435 66.8349V65.8746C34.2435 65.8164 34.2144 65.7873 34.2144 65.7582Z" fill="white"/>
<path d="M44.2248 49.8982C44.1957 49.8691 44.1666 49.8691 44.1375 49.8691H43.119C43.0899 49.8691 43.0608 49.8691 43.0317 49.8982C43.0026 49.9273 43.0026 49.9564 43.0026 49.9855V57.4061C43.0026 59.9669 43.0026 61.5965 43.1481 64.3028C42.537 62.4695 41.7513 60.4907 41.0238 58.6283L37.6191 49.9564C37.59 49.8982 37.5609 49.8691 37.5027 49.8691H36.3969C36.3678 49.8691 36.3387 49.8691 36.3096 49.8982C36.2805 49.9273 36.2805 49.9564 36.2805 49.9855V66.7763C36.2805 66.8054 36.2805 66.8345 36.3096 66.8636C36.3387 66.8927 36.3678 66.8927 36.3969 66.8927H37.4154C37.4445 66.8927 37.4736 66.8927 37.5027 66.8636C37.5318 66.8345 37.5318 66.8054 37.5318 66.7763V59.705C37.5318 56.4458 37.5318 54.6125 37.4154 52.459C38.0556 54.4961 38.6667 56.0675 39.336 57.6971L42.9153 66.8054C42.9444 66.8636 42.9735 66.8927 43.0317 66.8927H44.1084C44.1375 66.8927 44.1666 66.8927 44.1957 66.8636C44.2248 66.8345 44.2248 66.8054 44.2248 66.7763V49.9855C44.2539 49.9564 44.2539 49.9273 44.2248 49.8982Z" fill="white"/>
<path d="M53.8279 49.8982C53.7988 49.8691 53.7697 49.8691 53.7406 49.8691H46.3782C46.3491 49.8691 46.32 49.8691 46.2909 49.8982C46.2618 49.9273 46.2618 49.9564 46.2618 49.9855V50.9167C46.2618 50.9458 46.2618 50.9749 46.2909 51.004C46.32 51.0331 46.3491 51.0331 46.3782 51.0331H49.3756V66.7763C49.3756 66.8054 49.3756 66.8345 49.4047 66.8636C49.4338 66.8927 49.4629 66.8927 49.492 66.8927H50.5687C50.5978 66.8927 50.6269 66.8927 50.656 66.8636C50.6851 66.8345 50.6851 66.8054 50.6851 66.7763V51.0331H53.6824C53.7115 51.0331 53.7406 51.0331 53.7697 51.004C53.7988 50.9749 53.7988 50.9458 53.7988 50.9167V49.9855C53.857 49.9564 53.8279 49.9273 53.8279 49.8982Z" fill="white"/>
<path d="M62.1796 65.7582C62.1505 65.7291 62.1214 65.7291 62.0923 65.7291H57.1453V58.5996H61.4521C61.4812 58.5996 61.5103 58.5996 61.5394 58.5705C61.5685 58.5414 61.5685 58.5123 61.5685 58.4832V57.5229C61.5685 57.4938 61.5685 57.4647 61.5394 57.4356C61.5103 57.4065 61.4812 57.4065 61.4521 57.4065H57.1453V51.1208H61.7722C61.8013 51.1208 61.8304 51.1208 61.8595 51.0917C61.8886 51.0626 61.8886 51.0335 61.8886 51.0044V50.0441C61.8886 50.015 61.8886 49.9859 61.8595 49.9568C61.8304 49.9277 61.8013 49.9277 61.7722 49.9277H55.9522C55.9231 49.9277 55.894 49.9277 55.8649 49.9568C55.8358 49.9859 55.8358 50.015 55.8358 50.0441V66.8349C55.8358 66.864 55.8358 66.8931 55.8649 66.9222C55.894 66.9513 55.9231 66.9513 55.9522 66.9513H62.1214C62.1505 66.9513 62.1796 66.9513 62.2087 66.9222C62.2378 66.8931 62.2378 66.864 62.2378 66.8349V65.8746C62.2378 65.8164 62.2087 65.7873 62.1796 65.7582Z" fill="white"/>
<path d="M71.7535 66.7484C71.5498 66.2828 71.2879 65.2643 70.8514 62.7035C70.4731 60.4046 69.8329 59.095 68.6107 58.6294C70.1821 57.8437 71.2297 56.5051 71.2297 54.2062C71.2297 52.9258 70.8514 51.7909 70.0948 50.9761C69.3091 50.1613 68.2615 49.7539 66.661 49.7539C65.8753 49.7539 65.0314 49.8412 64.3621 50.074C64.3039 50.1031 64.2748 50.1322 64.2748 50.1904V66.7484C64.2748 66.7775 64.2748 66.8066 64.3039 66.8357C64.333 66.8648 64.3621 66.8648 64.3912 66.8648H65.4679C65.497 66.8648 65.5261 66.8648 65.5552 66.8357C65.5843 66.8066 65.5843 66.7775 65.5843 66.7484V59.1823H66.37C68.2906 59.2114 69.0472 60.1136 69.4837 62.5289C69.862 64.7405 70.153 66.2246 70.4149 66.8066C70.444 66.8648 70.4731 66.8939 70.5313 66.8939H71.608C71.6371 66.8939 71.6953 66.8648 71.7244 66.8357C71.7535 66.8357 71.7535 66.7775 71.7535 66.7484ZM66.3991 58.1056H65.5843V51.0343C65.8462 50.9761 66.1954 50.947 66.6028 50.947C68.989 50.9761 69.8038 52.1983 69.8329 54.4099C69.8329 56.7088 68.407 58.1056 66.3991 58.1056Z" fill="white"/>
</svg>
